<?xml version="1.0" encoding="utf-8"?>
<!-- Generator: Adobe Illustrator 22.0.0, SVG Export Plug-In . SVG Version: 6.00 Build 0)  -->
<svg version="1.1" id="Layer_1" xmlns="http://www.w3.org/2000/svg" xmlns:xlink="http://www.w3.org/1999/xlink" x="0px" y="0px"
	 viewBox="0 0 118 210.8" style="enable-background:new 0 0 118 210.8;" xml:space="preserve">
<style type="text/css">
	.st0{fill:#008D36;}
	.st1{fill:none;stroke:#FFFFFF;stroke-linejoin:round;}
	.st2{fill:none;stroke:#FFFFFF;stroke-miterlimit:10;}
	.st3{fill:none;stroke:#E0E0E0;stroke-linecap:round;stroke-miterlimit:10;}
	.st4{fill:none;stroke:#E0E0E0;stroke-linecap:round;stroke-miterlimit:10;stroke-dasharray:5.98,5.98;}
</style>
<title>Asset 4</title>
<rect class="st0" width="118" height="210.8"/>
<line class="st1" x1="108" y1="23.5" x2="10" y2="23.5"/>
<polygon class="st1" points="10,105.4 10,200.8 108,200.8 108,105.4 108,10 10,10 "/>
<polyline class="st1" points="100.4,200.8 100.4,105.4 100.4,10 "/>
<polyline class="st1" points="59,200.8 59,105.4 59,10 "/>
<polyline class="st1" points="17.4,200.8 17.4,105.4 17.4,10 "/>
<line class="st1" x1="108" y1="187.3" x2="10" y2="187.3"/>
<line class="st2" x1="108" y1="80" x2="10" y2="80"/>
<line class="st2" x1="108" y1="130.8" x2="10" y2="130.8"/>
<line class="st3" x1="112.8" y1="105.4" x2="109.8" y2="105.4"/>
<line class="st4" x1="103.8" y1="105.4" x2="11.2" y2="105.4"/>
<line class="st3" x1="8.2" y1="105.4" x2="5.2" y2="105.4"/>
</svg>
